[{
     "company": "ASP",
    "possitions": "Software Engineer",
    "status": "pendding",
    "workType": "full-time",
    "workLocation": "THANE",
    "experince": "2 years",
    "createdBy": {
      "$oid": "65890e9bc0c8c2f2b271b134"
    }
 },{
 
    "company": "Vioma ",
    "possitions": "Software Engineer",
    "status": "pendding",
    "workType": "full-time",
    "workLocation": "THANE",
    "experince": "2 years",
    "createdBy": {
      "$oid": "65890e9bc0c8c2f2b271b134"
    }
    },{
  
    "company": "gmb ",
    "possitions": "Software Engineer",
    "status": "pendding",
    "workType": "full-time",
    "workLocation": "andheri",
    "experince": "2 years",
    "createdBy": {
      "$oid": "65890e9bc0c8c2f2b271b134"
    }
  },{
    "company": "tcs",
    "possitions": "softwere  tester",
    "status": "pendding",
    "workType": "full-time",
    "workLocation": "andheri",
    "experince": " 5 years",
    "createdBy": {
      "$oid": "65890e9bc0c8c2f2b271b134"
    }
   
  }




]